T0001CH2.CSV

Model,DPO2024B
Firmware Version,1.52

Point Format,Y,
Horizontal Units,S,
Horizontal Scale,0.001,
Sample Interval,8e-08,
Filter Frequency,2e+08,
Record Length,125000,
Gating,0.0% to 100.0%,
Probe Attenuation,1,
Vertical Units,V,
Vertical Offset,0,
Vertical Scale,0.1,
Label,,
TIME,CH2,CH2 Peak Detect
1.520000e-04,-0.166,-0.162
1.520800e-04,-0.158,-0.174
1.521600e-04,-0.158,-0.158
1.522400e-04,-0.162,-0.17
1.523200e-04,-0.158,-0.158
1.524000e-04,-0.154,-0.166
1.524800e-04,-0.158,-0.154
1.525600e-04,-0.15,-0.162
1.526400e-04,-0.154,-0.15
1.527200e-04,-0.154,-0.162
1.528000e-04,-0.146,-0.15
1.528800e-04,-0.146,-0.158
1.529600e-04,-0.146,-0.146
1.530400e-04,-0.146,-0.154
1.531200e-04,-0.15,-0.142
1.532000e-04,-0.146,-0.154
1.532800e-04,-0.142,-0.142
1.533600e-04,-0.142,-0.154
1.534400e-04,-0.138,-0.138
1.535200e-04,-0.146,-0.15
1.536000e-04,-0.138,-0.134
1.536800e-04,-0.134,-0.15
1.537600e-04,-0.142,-0.138
1.538400e-04,-0.138,-0.146
1.539200e-04,-0.138,-0.134
1.540000e-04,-0.138,-0.142
1.540800e-04,-0.134,-0.134
1.541600e-04,-0.138,-0.142
1.542400e-04,-0.134,-0.13
1.543200e-04,-0.138,-0.142
1.544000e-04,-0.142,-0.13
1.544800e-04,-0.134,-0.142
1.545600e-04,-0.134,-0.13
1.546400e-04,-0.138,-0.142
1.547200e-04,-0.134,-0.13
1.548000e-04,-0.138,-0.138
1.548800e-04,-0.134,-0.13
1.549600e-04,-0.138,-0.142
1.550400e-04,-0.134,-0.13
1.551200e-04,-0.134,-0.142
1.552000e-04,-0.138,-0.13
1.552800e-04,-0.142,-0.138
1.553600e-04,-0.138,-0.13
1.554400e-04,-0.142,-0.142
1.555200e-04,-0.138,-0.134
1.556000e-04,-0.138,-0.142
1.556800e-04,-0.142,-0.134
1.557600e-04,-0.142,-0.146
1.558400e-04,-0.142,-0.134
1.559200e-04,-0.146,-0.15
1.560000e-04,-0.15,-0.138
1.560800e-04,-0.146,-0.15
1.561600e-04,-0.15,-0.138
1.562400e-04,-0.146,-0.154
1.563200e-04,-0.146,-0.142
1.564000e-04,-0.154,-0.15
1.564800e-04,-0.15,-0.142
1.565600e-04,-0.154,-0.154
1.566400e-04,-0.154,-0.142
1.567200e-04,-0.154,-0.158
1.568000e-04,-0.15,-0.146
1.568800e-04,-0.15,-0.154
1.569600e-04,-0.154,-0.146
1.570400e-04,-0.154,-0.158
1.571200e-04,-0.154,-0.146
1.572000e-04,-0.15,-0.162
1.572800e-04,-0.154,-0.15
1.573600e-04,-0.158,-0.158
1.574400e-04,-0.154,-0.146
1.575200e-04,-0.154,-0.162
1.576000e-04,-0.154,-0.15
1.576800e-04,-0.158,-0.158
1.577600e-04,-0.158,-0.15
1.578400e-04,-0.158,-0.162
1.579200e-04,-0.162,-0.15
1.580000e-04,-0.154,-0.162
1.580800e-04,-0.154,-0.15
1.581600e-04,-0.158,-0.162
1.582400e-04,-0.154,-0.15
1.583200e-04,-0.158,-0.162
1.584000e-04,-0.158,-0.15
1.584800e-04,-0.162,-0.162
1.585600e-04,-0.158,-0.154
1.586400e-04,-0.154,-0.166
1.587200e-04,-0.158,-0.154
1.588000e-04,-0.154,-0.162
1.588800e-04,-0.158,-0.154
1.589600e-04,-0.158,-0.162
1.590400e-04,-0.158,-0.154
1.591200e-04,-0.158,-0.162
1.592000e-04,-0.158,-0.154
1.592800e-04,-0.162,-0.162
1.593600e-04,-0.162,-0.154
1.594400e-04,-0.158,-0.162
1.595200e-04,-0.158,-0.15
1.596000e-04,-0.154,-0.166
1.596800e-04,-0.158,-0.154
1.597600e-04,-0.162,-0.162
1.598400e-04,-0.158,-0.15
1.599200e-04,-0.154,-0.166
1.600000e-04,-0.158,-0.154
1.600800e-04,-0.162,-0.162
1.601600e-04,-0.158,-0.15
1.602400e-04,-0.158,-0.166
1.603200e-04,-0.154,-0.154
1.604000e-04,-0.158,-0.162
1.604800e-04,-0.158,-0.15
1.605600e-04,-0.154,-0.162
1.606400e-04,-0.158,-0.15
1.607200e-04,-0.15,-0.162
1.608000e-04,-0.154,-0.15
1.608800e-04,-0.162,-0.162
1.609600e-04,-0.154,-0.15
1.610400e-04,-0.154,-0.162
1.611200e-04,-0.154,-0.15
1.612000e-04,-0.15,-0.162
1.612800e-04,-0.154,-0.15
1.613600e-04,-0.154,-0.158
1.614400e-04,-0.158,-0.146
1.615200e-04,-0.154,-0.162
1.616000e-04,-0.15,-0.15
1.616800e-04,-0.15,-0.158
1.617600e-04,-0.15,-0.146
1.618400e-04,-0.154,-0.158
1.619200e-04,-0.154,-0.146
1.620000e-04,-0.154,-0.158
1.620800e-04,-0.15,-0.146
1.621600e-04,-0.154,-0.162
1.622400e-04,-0.146,-0.146
1.623200e-04,-0.146,-0.158
1.624000e-04,-0.15,-0.146
1.624800e-04,-0.146,-0.154
1.625600e-04,-0.15,-0.142
1.626400e-04,-0.142,-0.158
1.627200e-04,-0.146,-0.142
1.628000e-04,-0.142,-0.154
1.628800e-04,-0.146,-0.142
1.629600e-04,-0.15,-0.15
1.630400e-04,-0.158,-0.142
1.631200e-04,-0.15,-0.158
1.632000e-04,-0.146,-0.142
1.632800e-04,-0.142,-0.158
1.633600e-04,-0.146,-0.142
1.634400e-04,-0.146,-0.15
1.635200e-04,-0.146,-0.138
1.636000e-04,-0.134,-0.15
1.636800e-04,-0.138,-0.134
1.637600e-04,-0.146,-0.146
1.638400e-04,-0.142,-0.134
1.639200e-04,-0.146,-0.15
1.640000e-04,-0.146,-0.134
1.640800e-04,-0.15,-0.154
1.641600e-04,-0.146,-0.138
1.642400e-04,-0.142,-0.154
1.643200e-04,-0.142,-0.142
1.644000e-04,-0.142,-0.15
1.644800e-04,-0.142,-0.142
1.645600e-04,-0.15,-0.146
1.646400e-04,-0.146,-0.134
1.647200e-04,-0.146,-0.15
1.648000e-04,-0.15,-0.138
1.648800e-04,-0.146,-0.154
1.649600e-04,-0.15,-0.142
1.650400e-04,-0.15,-0.154
1.651200e-04,-0.146,-0.142
1.652000e-04,-0.146,-0.158
1.652800e-04,-0.146,-0.142
1.653600e-04,-0.138,-0.15
1.654400e-04,-0.146,-0.138
1.655200e-04,-0.142,-0.15
1.656000e-04,-0.146,-0.138
1.656800e-04,-0.146,-0.15
1.657600e-04,-0.142,-0.138
1.658400e-04,-0.146,-0.154
1.659200e-04,-0.158,-0.142
1.660000e-04,-0.154,-0.158
1.660800e-04,-0.146,-0.142
1.661600e-04,-0.142,-0.166
1.662400e-04,-0.142,-0.142
1.663200e-04,-0.146,-0.154
1.664000e-04,-0.142,-0.142
1.664800e-04,-0.154,-0.15
1.665600e-04,-0.146,-0.142
1.666400e-04,-0.154,-0.158
1.667200e-04,-0.15,-0.142
1.668000e-04,-0.154,-0.158
1.668800e-04,-0.158,-0.146
1.669600e-04,-0.146,-0.166
1.670400e-04,-0.15,-0.146
1.671200e-04,-0.146,-0.162
1.672000e-04,-0.15,-0.142
1.672800e-04,-0.138,-0.154
1.673600e-04,-0.154,-0.146
1.674400e-04,-0.15,-0.158
1.675200e-04,-0.154,-0.138
1.676000e-04,-0.154,-0.158
1.676800e-04,-0.15,-0.146
1.677600e-04,-0.158,-0.162
1.678400e-04,-0.158,-0.15
1.679200e-04,-0.158,-0.158
1.680000e-04,-0.154,-0.146
1.680800e-04,-0.154,-0.162
1.681600e-04,-0.154,-0.15
1.682400e-04,-0.162,-0.162
1.683200e-04,-0.158,-0.15
1.684000e-04,-0.158,-0.162
1.684800e-04,-0.162,-0.15
1.685600e-04,-0.158,-0.162
1.686400e-04,-0.162,-0.154
1.687200e-04,-0.158,-0.166
1.688000e-04,-0.158,-0.154
1.688800e-04,-0.162,-0.166
1.689600e-04,-0.15,-0.15
1.690400e-04,-0.154,-0.166
1.691200e-04,-0.162,-0.15
1.692000e-04,-0.162,-0.162
1.692800e-04,-0.162,-0.15
1.693600e-04,-0.158,-0.166
1.694400e-04,-0.154,-0.154
1.695200e-04,-0.158,-0.162
1.696000e-04,-0.154,-0.15
1.696800e-04,-0.154,-0.166
1.697600e-04,-0.162,-0.146
1.698400e-04,-0.158,-0.166
1.699200e-04,-0.162,-0.154
1.700000e-04,-0.158,-0.162
1.700800e-04,-0.154,-0.154
1.701600e-04,-0.162,-0.166
1.702400e-04,-0.162,-0.15
1.703200e-04,-0.158,-0.166
1.704000e-04,-0.158,-0.15
1.704800e-04,-0.154,-0.166
1.705600e-04,-0.162,-0.154
1.706400e-04,-0.162,-0.166
1.707200e-04,-0.154,-0.154
1.708000e-04,-0.158,-0.166
1.708800e-04,-0.158,-0.154
1.709600e-04,-0.158,-0.166
1.710400e-04,-0.158,-0.15
1.711200e-04,-0.158,-0.162
1.712000e-04,-0.146,-0.15
1.712800e-04,-0.186,-0.17
1.713600e-04,-0.178,-0.142
1.714400e-04,-0.17,-0.194
1.715200e-04,-0.162,-0.142
1.716000e-04,-0.162,-0.182
1.716800e-04,-0.162,-0.162
1.717600e-04,-0.162,-0.17
1.718400e-04,-0.158,-0.162
1.719200e-04,-0.158,-0.166
1.720000e-04,-0.154,-0.158
1.720800e-04,-0.162,-0.162
1.721600e-04,-0.158,-0.15
1.722400e-04,-0.154,-0.162
1.723200e-04,-0.158,-0.15
1.724000e-04,-0.158,-0.162
1.724800e-04,-0.154,-0.15
1.725600e-04,-0.142,-0.166
1.726400e-04,-0.134,-0.15
1.727200e-04,-0.142,-0.158
1.728000e-04,-0.138,-0.13
1.728800e-04,-0.138,-0.142
1.729600e-04,-0.13,-0.134
1.730400e-04,-0.134,-0.142
1.731200e-04,-0.134,-0.126
1.732000e-04,-0.122,-0.142
1.732800e-04,-0.13,-0.13
1.733600e-04,-0.13,-0.142
1.734400e-04,-0.122,-0.122
1.735200e-04,-0.13,-0.138
1.736000e-04,-0.126,-0.122
1.736800e-04,-0.122,-0.138
1.737600e-04,-0.126,-0.122
1.738400e-04,-0.122,-0.134
1.739200e-04,-0.122,-0.118
1.740000e-04,-0.118,-0.134
1.740800e-04,-0.114,-0.114
1.741600e-04,-0.126,-0.126
1.742400e-04,-0.114,-0.114
1.743200e-04,-0.114,-0.126
1.744000e-04,-0.114,-0.106
1.744800e-04,-0.11,-0.126
1.745600e-04,-0.122,-0.106
1.746400e-04,-0.11,-0.126
1.747200e-04,-0.106,-0.106
1.748000e-04,-0.118,-0.122
1.748800e-04,-0.11,-0.106
1.749600e-04,-0.098,-0.122
1.750400e-04,-0.122,-0.102
1.751200e-04,-0.098,-0.122
1.752000e-04,-0.094,-0.09
1.752800e-04,-0.118,-0.126
1.753600e-04,-0.098,-0.09
1.754400e-04,-0.106,-0.118
1.755200e-04,-0.102,-0.086
1.756000e-04,-0.098,-0.11
1.756800e-04,-0.106,-0.094
1.757600e-04,-0.094,-0.118
1.758400e-04,-0.086,-0.094
1.759200e-04,-0.102,-0.114
1.760000e-04,-0.082,-0.086
1.760800e-04,-0.106,-0.106
1.761600e-04,-0.086,-0.078
1.762400e-04,-0.086,-0.114
1.763200e-04,-0.082,-0.074
1.764000e-04,-0.074,-0.106
1.764800e-04,-0.082,-0.074
1.765600e-04,-0.102,-0.094
1.766400e-04,-0.086,-0.07
1.767200e-04,-0.082,-0.11
1.768000e-04,-0.078,-0.074
1.768800e-04,-0.07,-0.086
1.769600e-04,-0.082,-0.074
1.770400e-04,-0.066,-0.094
1.771200e-04,-0.062,-0.066
1.772000e-04,-0.07,-0.082
1.772800e-04,-0.058,-0.058
1.773600e-04,-0.058,-0.074
1.774400e-04,-0.074,-0.054
1.775200e-04,-0.062,-0.074
1.776000e-04,-0.062,-0.046
1.776800e-04,-0.07,-0.086
1.777600e-04,-0.058,-0.058
1.778400e-04,-0.062,-0.082
1.779200e-04,-0.054,-0.05
1.780000e-04,-0.066,-0.066
1.780800e-04,-0.062,-0.046
1.781600e-04,-0.042,-0.066
1.782400e-04,-0.058,-0.046
1.783200e-04,-0.046,-0.066
1.784000e-04,-0.05,-0.038
1.784800e-04,-0.066,-0.074
1.785600e-04,-0.034,-0.03
1.786400e-04,-0.05,-0.07
1.787200e-04,-0.042,-0.034
1.788000e-04,-0.03,-0.058
1.788800e-04,-0.042,-0.03
1.789600e-04,-0.038,-0.05
1.790400e-04,-0.018,-0.026
1.791200e-04,-0.034,-0.046
1.792000e-04,-0.026,-0.018
1.792800e-04,-0.022,-0.046
1.793600e-04,-0.042,-0.014
1.794400e-04,-0.038,-0.042
1.795200e-04,-0.034,-0.014
1.796000e-04,-0.03,-0.046
1.796800e-04,-0.014,-0.022
1.797600e-04,-0.03,-0.038
1.798400e-04,-0.022,-0.01
1.799200e-04,-0.018,-0.034
1.800000e-04,-0.014,-0.01
1.800800e-04,-0.014,-0.042
1.801600e-04,-0.022,-0.006
1.802400e-04,-0.034,-0.03
1.803200e-04,-0.01,-0.014
1.804000e-04,-0.03,-0.038
1.804800e-04,-0.014,-0.006
1.805600e-04,-0.01,-0.034
1.806400e-04,-0.018,-0.01
1.807200e-04,-0.014,-0.026
1.808000e-04,-0.002,-0.006
1.808800e-04,-0.01,-0.022
1.809600e-04,-0.002,-0.002
1.810400e-04,-0.014,-0.026
1.811200e-04,-0.006,-0.002
1.812000e-04,-0.002,-0.022
1.812800e-04,-0.014,0.002
1.813600e-04,-0.006,-0.018
1.814400e-04,0.002,-0.002
1.815200e-04,-0.018,-0.018
1.816000e-04,0.002,0.002
1.816800e-04,0.002,-0.022
1.817600e-04,-0.014,0.006
1.818400e-04,0.006,-0.014
1.819200e-04,-0.01,0.006
1.820000e-04,0.002,-0.014
1.820800e-04,0.006,0.014
1.821600e-04,-0.006,-0.014
1.822400e-04,0.006,0.014
1.823200e-04,0.002,-0.014
1.824000e-04,0.002,0.01
1.824800e-04,0.006,-0.006
1.825600e-04,0.002,0.01
1.826400e-04,0.006,-0.006
1.827200e-04,0.01,0.014
1.828000e-04,0.006,-0.002
1.828800e-04,0.01,0.014
1.829600e-04,0.01,0.006
1.830400e-04,0.002,0.022
1.831200e-04,0.018,-0.006
1.832000e-04,0.002,0.022
1.832800e-04,0.014,0.002
1.833600e-04,0.018,0.022
1.834400e-04,0.018,0.002
1.835200e-04,0.014,0.022
1.836000e-04,0.022,0.002
1.836800e-04,0.01,0.022
1.837600e-04,0.018,0.002
1.838400e-04,0.018,0.034
1.839200e-04,0.022,0.006
1.840000e-04,0.018,0.022
1.840800e-04,0.018,0.018
1.841600e-04,0.03,0.03
1.842400e-04,0.026,0.014
1.843200e-04,0.03,0.034
1.844000e-04,0.026,0.01
1.844800e-04,0.034,0.03
1.845600e-04,0.018,0.014
1.846400e-04,0.038,0.038
1.847200e-04,0.026,0.014
1.848000e-04,0.034,0.042
1.848800e-04,0.034,0.018
1.849600e-04,0.038,0.038
1.850400e-04,0.038,0.03
1.851200e-04,0.042,0.042
1.852000e-04,0.026,0.034
1.852800e-04,0.034,0.042
1.853600e-04,0.042,0.022
1.854400e-04,0.034,0.046
1.855200e-04,0.05,0.03
1.856000e-04,0.01,0.046
1.856800e-04,0.034,0.006
1.857600e-04,0.042,0.054
1.858400e-04,0.038,0.01
1.859200e-04,0.046,0.042
1.860000e-04,0.038,0.026
1.860800e-04,0.042,0.046
1.861600e-04,0.046,0.03
1.862400e-04,0.046,0.046
1.863200e-04,0.034,0.038
1.864000e-04,0.042,0.05
1.864800e-04,0.042,0.03
1.865600e-04,0.054,0.054
1.866400e-04,0.05,0.042
1.867200e-04,0.042,0.062
1.868000e-04,0.058,0.042
1.868800e-04,0.054,0.054
1.869600e-04,0.05,0.042
1.870400e-04,0.054,0.062
1.871200e-04,0.054,0.038
1.872000e-04,0.054,0.062
1.872800e-04,0.058,0.046
1.873600e-04,0.05,0.062
1.874400e-04,0.054,0.042
1.875200e-04,0.062,0.062
1.876000e-04,0.058,0.05
1.876800e-04,0.066,0.062
1.877600e-04,0.054,0.05
1.878400e-04,0.058,0.066
1.879200e-04,0.066,0.054
1.880000e-04,0.062,0.07
1.880800e-04,0.058,0.054
1.881600e-04,0.066,0.066
1.882400e-04,0.062,0.05
1.883200e-04,0.062,0.07
1.884000e-04,0.062,0.05
1.884800e-04,0.062,0.066
1.885600e-04,0.066,0.058
1.886400e-04,0.066,0.07
1.887200e-04,0.074,0.062
1.888000e-04,0.066,0.07
1.888800e-04,0.062,0.062
1.889600e-04,0.07,0.078
1.890400e-04,0.066,0.062
1.891200e-04,0.07,0.074
1.892000e-04,0.066,0.062
1.892800e-04,0.07,0.074
1.893600e-04,0.074,0.066
1.894400e-04,0.078,0.074
1.895200e-04,0.078,0.066
1.896000e-04,0.078,0.078
1.896800e-04,0.078,0.07
1.897600e-04,0.078,0.082
1.898400e-04,0.082,0.074
1.899200e-04,0.078,0.082
1.900000e-04,0.074,0.074
1.900800e-04,0.082,0.086
1.901600e-04,0.078,0.07
1.902400e-04,0.078,0.086
1.903200e-04,0.082,0.07
1.904000e-04,0.074,0.086
1.904800e-04,0.086,0.07
1.905600e-04,0.078,0.082
1.906400e-04,0.082,0.07
1.907200e-04,0.082,0.086
1.908000e-04,0.082,0.078
1.908800e-04,0.09,0.09
1.909600e-04,0.086,0.078
1.910400e-04,0.074,0.09
1.911200e-04,0.086,0.07
1.912000e-04,0.094,0.09
1.912800e-04,0.078,0.074
1.913600e-04,0.09,0.094
1.914400e-04,0.094,0.074
1.915200e-04,0.094,0.094
1.916000e-04,0.098,0.086
1.916800e-04,0.086,0.094
1.917600e-04,0.094,0.086
1.918400e-04,0.094,0.098
1.919200e-04,0.09,0.082
1.920000e-04,0.094,0.098
1.920800e-04,0.094,0.086
1.921600e-04,0.09,0.102
1.922400e-04,0.094,0.09
1.923200e-04,0.098,0.098
1.924000e-04,0.098,0.086
1.924800e-04,0.098,0.098
1.925600e-04,0.098,0.09
1.926400e-04,0.098,0.106
1.927200e-04,0.106,0.094
1.928000e-04,0.094,0.106
1.928800e-04,0.106,0.094
1.929600e-04,0.098,0.106
1.930400e-04,0.094,0.094
1.931200e-04,0.102,0.106
1.932000e-04,0.094,0.09
1.932800e-04,0.098,0.106
1.933600e-04,0.102,0.094
1.934400e-04,0.102,0.102
1.935200e-04,0.106,0.094
1.936000e-04,0.106,0.11
1.936800e-04,0.102,0.098
1.937600e-04,0.11,0.106
1.938400e-04,0.102,0.098
1.939200e-04,0.106,0.11
1.940000e-04,0.102,0.098
1.940800e-04,0.11,0.114
1.941600e-04,0.11,0.098
1.942400e-04,0.106,0.114
1.943200e-04,0.11,0.098
1.944000e-04,0.118,0.114
1.944800e-04,0.106,0.106
1.945600e-04,0.114,0.118
1.946400e-04,0.11,0.106
1.947200e-04,0.106,0.118
1.948000e-04,0.11,0.106
1.948800e-04,0.106,0.118
1.949600e-04,0.114,0.102
1.950400e-04,0.106,0.118
1.951200e-04,0.094,0.102
1.952000e-04,0.118,0.118
1.952800e-04,0.114,0.094
1.953600e-04,0.11,0.118
1.954400e-04,0.11,0.098
1.955200e-04,0.114,0.118
1.956000e-04,0.106,0.098
1.956800e-04,0.118,0.114
1.957600e-04,0.118,0.102
1.958400e-04,0.114,0.118
1.959200e-04,0.118,0.106
1.960000e-04,0.11,0.118
1.960800e-04,0.118,0.106
1.961600e-04,0.118,0.118
1.962400e-04,0.122,0.106
1.963200e-04,0.118,0.126
1.964000e-04,0.118,0.114
1.964800e-04,0.118,0.13
1.965600e-04,0.122,0.114
1.966400e-04,0.122,0.13
1.967200e-04,0.126,0.11
1.968000e-04,0.122,0.126
1.968800e-04,0.11,0.118
1.969600e-04,0.122,0.13
1.970400e-04,0.118,0.11
1.971200e-04,0.122,0.126
1.972000e-04,0.126,0.114
1.972800e-04,0.118,0.13
1.973600e-04,0.126,0.118
1.974400e-04,0.126,0.13
1.975200e-04,0.122,0.118
1.976000e-04,0.122,0.134
1.976800e-04,0.126,0.118
1.977600e-04,0.122,0.134
1.978400e-04,0.13,0.118
1.979200e-04,0.122,0.13
1.980000e-04,0.126,0.114
1.980800e-04,0.13,0.13
1.981600e-04,0.126,0.122
1.982400e-04,0.13,0.134
1.983200e-04,0.126,0.122
1.984000e-04,0.126,0.134
1.984800e-04,0.13,0.118
1.985600e-04,0.13,0.134
1.986400e-04,0.13,0.118
1.987200e-04,0.134,0.134
1.988000e-04,0.126,0.122
1.988800e-04,0.134,0.134
1.989600e-04,0.134,0.126
1.990400e-04,0.134,0.134
1.991200e-04,0.138,0.13
1.992000e-04,0.138,0.138
1.992800e-04,0.13,0.126
1.993600e-04,0.134,0.142
1.994400e-04,0.142,0.126
1.995200e-04,0.13,0.142
1.996000e-04,0.134,0.126
1.996800e-04,0.134,0.142
1.997600e-04,0.134,0.126
1.998400e-04,0.134,0.138
1.999200e-04,0.138,0.13
2.000000e-04,0.142,0.138
2.000800e-04,0.134,0.13
2.001600e-04,0.134,0.142
2.002400e-04,0.138,0.126
2.003200e-04,0.138,0.146
2.004000e-04,0.142,0.13
2.004800e-04,0.138,0.146
2.005600e-04,0.134,0.134
2.006400e-04,0.138,0.142
2.007200e-04,0.138,0.126
2.008000e-04,0.142,0.142
2.008800e-04,0.142,0.13
2.009600e-04,0.138,0.142
2.010400e-04,0.138,0.13
2.011200e-04,0.142,0.146
2.012000e-04,0.134,0.13
2.012800e-04,0.138,0.142
2.013600e-04,0.138,0.13
2.014400e-04,0.142,0.142
2.015200e-04,0.142,0.13
2.016000e-04,0.142,0.146
2.016800e-04,0.142,0.134
2.017600e-04,0.142,0.146
2.018400e-04,0.142,0.134
2.019200e-04,0.142,0.146
2.020000e-04,0.134,0.138
2.020800e-04,0.138,0.15
2.021600e-04,0.142,0.13
2.022400e-04,0.138,0.142
2.023200e-04,0.142,0.134
2.024000e-04,0.142,0.142
2.024800e-04,0.142,0.134
2.025600e-04,0.142,0.146
2.026400e-04,0.142,0.138
2.027200e-04,0.146,0.154
2.028000e-04,0.146,0.138
2.028800e-04,0.142,0.15
2.029600e-04,0.138,0.142
2.030400e-04,0.146,0.15
2.031200e-04,0.154,0.138
2.032000e-04,0.142,0.15
2.032800e-04,0.146,0.142
2.033600e-04,0.142,0.154
2.034400e-04,0.146,0.142
2.035200e-04,0.142,0.154
2.036000e-04,0.146,0.138
2.036800e-04,0.15,0.15
2.037600e-04,0.142,0.142
2.038400e-04,0.15,0.154
2.039200e-04,0.146,0.138
2.040000e-04,0.154,0.154
2.040800e-04,0.158,0.142
2.041600e-04,0.15,0.154
2.042400e-04,0.15,0.146
2.043200e-04,0.15,0.158
2.044000e-04,0.146,0.146
2.044800e-04,0.154,0.154
2.045600e-04,0.15,0.142
2.046400e-04,0.146,0.154
2.047200e-04,0.15,0.146
2.048000e-04,0.15,0.158
2.048800e-04,0.142,0.142
2.049600e-04,0.15,0.158
2.050400e-04,0.142,0.138
2.051200e-04,0.138,0.154
2.052000e-04,0.142,0.13
2.052800e-04,0.142,0.15
2.053600e-04,0.146,0.134
2.054400e-04,0.142,0.146
2.055200e-04,0.146,0.138
2.056000e-04,0.146,0.15
2.056800e-04,0.15,0.138
2.057600e-04,0.146,0.15
2.058400e-04,0.146,0.138
2.059200e-04,0.15,0.154
2.060000e-04,0.154,0.142
2.060800e-04,0.154,0.154
2.061600e-04,0.146,0.146
2.062400e-04,0.146,0.158
2.063200e-04,0.146,0.142
2.064000e-04,0.146,0.158
2.064800e-04,0.15,0.138
2.065600e-04,0.15,0.15
2.066400e-04,0.15,0.142
2.067200e-04,0.15,0.154
2.068000e-04,0.15,0.142
2.068800e-04,0.146,0.154
2.069600e-04,0.15,0.142
2.070400e-04,0.142,0.154
2.071200e-04,0.15,0.138
2.072000e-04,0.15,0.154
2.072800e-04,0.154,0.142
2.073600e-04,0.15,0.154
2.074400e-04,0.15,0.146
2.075200e-04,0.15,0.158
2.076000e-04,0.15,0.146
2.076800e-04,0.154,0.158
2.077600e-04,0.158,0.146
2.078400e-04,0.15,0.158
2.079200e-04,0.15,0.142
2.080000e-04,0.154,0.158
2.080800e-04,0.146,0.142
2.081600e-04,0.154,0.158
2.082400e-04,0.154,0.146
2.083200e-04,0.15,0.158
2.084000e-04,0.154,0.15
2.084800e-04,0.15,0.158
2.085600e-04,0.15,0.146
2.086400e-04,0.15,0.158
2.087200e-04,0.15,0.146
2.088000e-04,0.15,0.158
2.088800e-04,0.154,0.146
2.089600e-04,0.15,0.162
2.090400e-04,0.154,0.146
2.091200e-04,0.15,0.158
2.092000e-04,0.15,0.146
2.092800e-04,0.154,0.158
2.093600e-04,0.154,0.146
2.094400e-04,0.154,0.158
2.095200e-04,0.158,0.15
2.096000e-04,0.15,0.162
2.096800e-04,0.154,0.15
2.097600e-04,0.154,0.158
2.098400e-04,0.154,0.15
2.099200e-04,0.154,0.158
2.100000e-04,0.158,0.146
2.100800e-04,0.158,0.158
2.101600e-04,0.158,0.15
2.102400e-04,0.15,0.158
2.103200e-04,0.154,0.15
2.104000e-04,0.158,0.158
2.104800e-04,0.15,0.15
2.105600e-04,0.154,0.158
2.106400e-04,0.158,0.146
2.107200e-04,0.15,0.162
2.108000e-04,0.154,0.146
2.108800e-04,0.158,0.158
2.109600e-04,0.154,0.146
2.110400e-04,0.158,0.162
2.111200e-04,0.15,0.15
2.112000e-04,0.154,0.158
2.112800e-04,0.158,0.146
2.113600e-04,0.154,0.162
2.114400e-04,0.162,0.15
2.115200e-04,0.154,0.162
2.116000e-04,0.158,0.154
2.116800e-04,0.162,0.162
2.117600e-04,0.158,0.15
2.118400e-04,0.158,0.162
2.119200e-04,0.154,0.15
2.120000e-04,0.158,0.162
2.120800e-04,0.158,0.15
2.121600e-04,0.158,0.162
2.122400e-04,0.158,0.15
2.123200e-04,0.154,0.162
2.124000e-04,0.158,0.15
2.124800e-04,0.154,0.166
2.125600e-04,0.158,0.154
2.126400e-04,0.158,0.162
2.127200e-04,0.158,0.154
2.128000e-04,0.15,0.162
2.128800e-04,0.158,0.146
2.129600e-04,0.162,0.162
2.130400e-04,0.158,0.146
2.131200e-04,0.158,0.166
2.132000e-04,0.162,0.154
2.132800e-04,0.154,0.162
2.133600e-04,0.15,0.15
2.134400e-04,0.158,0.162
