exp-spectroscopy/data_oscilloscope_F4/ALL0007/F0007CH3.CSV

Record Length,2.500000e+03,,  -0.009000000000,   0.00200,
Sample Interval,4.000000e-06,,  -0.008996000000,  -0.00200,
Trigger Point,2.250000000000e+03,,  -0.008992000000,   0.00400,
,,,  -0.008988000000,   0.00400,
,,,  -0.008984000000,   0.00400,
,,,  -0.008980000000,   0.00400,
Source,CH3,,  -0.008976000000,   0.00400,
Vertical Units,V,,  -0.008972000000,   0.00200,
Vertical Scale,5.000000e-02,,  -0.008968000000,   0.00400,
Vertical Offset,2.400000e-02,,  -0.008964000000,   0.00200,
Horizontal Units,s,,  -0.008960000000,   0.00400,
Horizontal Scale,1.000000e-03,,  -0.008956000000,   0.00400,
Pt Fmt,Y,,  -0.008952000000,   0.00400,
Yzero,0.000000e+00,,  -0.008948000000,   0.00400,
Probe Atten,1.000000e+00,,  -0.008944000000,   0.00400,
Model Number,TDS2024C,,  -0.008940000000,   0.00400,
Serial Number,C031511,,  -0.008936000000,   0.00400,
Firmware Version,FV:v24.26,,  -0.008932000000,   0.00200,
,,,-00.008928000000,   0.00000,
,,,-00.008924000000,   0.00200,
,,,-00.008920000000,   0.00200,
,,,-00.008916000000,   0.00000,
,,,-00.008912000000,   0.00400,
,,,-00.008908000000,   0.00400,
,,,-00.008904000000,   0.00200,
,,,-00.008900000000,  -0.00200,
,,,-00.008896000000,   0.00200,
,,,-00.008892000000,   0.00000,
,,,-00.008888000000,  -0.00200,
,,,-00.008884000000,   0.00400,
,,,-00.008880000000,   0.00400,
,,,-00.008876000000,   0.00400,
,,,-00.008872000000,   0.00200,
,,,-00.008868000000,   0.00000,
,,,-00.008864000000,   0.00200,
,,,-00.008860000000,   0.00000,
,,,-00.008856000000,   0.00200,
,,,-00.008852000000,   0.00400,
,,,-00.008848000000,  -0.00200,
,,,-00.008844000000,   0.00200,
,,,-00.008840000000,   0.00200,
,,,-00.008836000000,  -0.00200,
,,,-00.008832000000,   0.00400,
,,,-00.008828000000,   0.00400,
,,,-00.008824000000,   0.00400,
,,,-00.008820000000,   0.00200,
,,,-00.008816000000,   0.00000,
,,,-00.008812000000,   0.00200,
,,,-00.008808000000,   0.00400,
,,,-00.008804000000,   0.00200,
,,,-00.008800000000,   0.00000,
,,,-00.008796000000,   0.00200,
,,,-00.008792000000,   0.00000,
,,,-00.008788000000,   0.00000,
,,,-00.008784000000,   0.00200,
,,,-00.008780000000,   0.00000,
,,,-00.008776000000,   0.00000,
,,,-00.008772000000,   0.00200,
,,,-00.008768000000,   0.00200,
,,,-00.008764000000,   0.00200,
,,,-00.008760000000,   0.00200,
,,,-00.008756000000,   0.00000,
,,,-00.008752000000,   0.00400,
,,,-00.008748000000,   0.00200,
,,,-00.008744000000,   0.00000,
,,,-00.008740000000,   0.00000,
,,,-00.008736000000,   0.00200,
,,,-00.008732000000,   0.00200,
,,,-00.008728000000,   0.00200,
,,,-00.008724000000,  -0.00200,
,,,-00.008720000000,   0.00000,
,,,-00.008716000000,   0.00200,
,,,-00.008712000000,  -0.00200,
,,,-00.008708000000,   0.00200,
,,,-00.008704000000,   0.00400,
,,,-00.008700000000,   0.00000,
,,,-00.008696000000,   0.00200,
,,,-00.008692000000,   0.00400,
,,,-00.008688000000,   0.00400,
,,,-00.008684000000,   0.00000,
,,,-00.008680000000,   0.00200,
,,,-00.008676000000,  -0.00200,
,,,-00.008672000000,   0.00600,
,,,-00.008668000000,   0.00200,
,,,-00.008664000000,   0.00400,
,,,-00.008660000000,   0.00200,
,,,-00.008656000000,   0.00400,
,,,-00.008652000000,   0.00200,
,,,-00.008648000000,   0.00200,
,,,-00.008644000000,   0.00200,
,,,-00.008640000000,   0.00200,
,,,-00.008636000000,   0.00400,
,,,-00.008632000000,   0.00200,
,,,-00.008628000000,   0.00000,
,,,-00.008624000000,  -0.00200,
,,,-00.008620000000,   0.00200,
,,,-00.008616000000,   0.00400,
,,,-00.008612000000,  -0.00200,
,,,-00.008608000000,   0.00000,
,,,-00.008604000000,   0.00200,
,,,-00.008600000000,   0.00000,
,,,-00.008596000000,   0.00000,
,,,-00.008592000000,   0.00200,
,,,-00.008588000000,   0.00200,
,,,-00.008584000000,   0.00200,
,,,-00.008580000000,  -0.00200,
,,,-00.008576000000,   0.00400,
,,,-00.008572000000,   0.00200,
,,,-00.008568000000,   0.00000,
,,,-00.008564000000,   0.00400,
,,,-00.008560000000,   0.00200,
,,,-00.008556000000,   0.00200,
,,,-00.008552000000,   0.00000,
,,,-00.008548000000,   0.00200,
,,,-00.008544000000,   0.00000,
,,,-00.008540000000,   0.00000,
,,,-00.008536000000,   0.00200,
,,,-00.008532000000,   0.00000,
,,,-00.008528000000,   0.00000,
,,,-00.008524000000,   0.00200,
,,,-00.008520000000,   0.00200,
,,,-00.008516000000,   0.00000,
,,,-00.008512000000,   0.00200,
,,,-00.008508000000,  -0.00400,
,,,-00.008504000000,   0.00400,
,,,-00.008500000000,   0.00400,
,,,-00.008496000000,  -0.00200,
,,,-00.008492000000,   0.00000,
,,,-00.008488000000,   0.00000,
,,,-00.008484000000,   0.00200,
,,,-00.008480000000,   0.00000,
,,,-00.008476000000,   0.00200,
,,,-00.008472000000,   0.00000,
,,,-00.008468000000,   0.00200,
,,,-00.008464000000,   0.00200,
,,,-00.008460000000,   0.00000,
,,,-00.008456000000,   0.00200,
,,,-00.008452000000,   0.00000,
,,,-00.008448000000,   0.00200,
,,,-00.008444000000,  -0.00200,
,,,-00.008440000000,   0.00000,
,,,-00.008436000000,   0.00200,
,,,-00.008432000000,   0.00000,
,,,-00.008428000000,  -0.00200,
,,,-00.008424000000,  -0.00200,
,,,-00.008420000000,   0.00200,
,,,-00.008416000000,   0.00200,
,,,-00.008412000000,  -0.00200,
,,,-00.008408000000,   0.00000,
,,,-00.008404000000,   0.00000,
,,,-00.008400000000,   0.00000,
,,,-00.008396000000,   0.00000,
,,,-00.008392000000,   0.00000,
,,,-00.008388000000,   0.00200,
,,,-00.008384000000,  -0.00200,
,,,-00.008380000000,  -0.00200,
,,,-00.008376000000,   0.00000,
,,,-00.008372000000,  -0.00200,
,,,-00.008368000000,  -0.00200,
,,,-00.008364000000,  -0.00400,
,,,-00.008360000000,   0.00000,
,,,-00.008356000000,   0.00000,
,,,-00.008352000000,   0.00000,
,,,-00.008348000000,  -0.00200,
,,,-00.008344000000,   0.00000,
,,,-00.008340000000,  -0.00200,
,,,-00.008336000000,   0.00200,
,,,-00.008332000000,   0.00000,
,,,-00.008328000000,   0.00000,
,,,-00.008324000000,   0.00200,
,,,-00.008320000000,   0.00800,
,,,-00.008316000000,   0.00600,
,,,-00.008312000000,   0.00600,
,,,-00.008308000000,   0.00600,
,,,-00.008304000000,   0.00400,
,,,-00.008300000000,   0.00800,
,,,-00.008296000000,   0.00800,
,,,-00.008292000000,   0.01200,
,,,-00.008288000000,   0.01000,
,,,-00.008284000000,   0.01400,
,,,-00.008280000000,   0.01400,
,,,-00.008276000000,   0.01800,
,,,-00.008272000000,   0.01800,
,,,-00.008268000000,   0.03000,
,,,-00.008264000000,   0.02600,
,,,-00.008260000000,   0.01200,
,,,-00.008256000000,   0.00800,
,,,-00.008252000000,   0.02200,
,,,-00.008248000000,   0.02000,
,,,-00.008244000000,   0.01400,
,,,-00.008240000000,   0.00400,
,,,-00.008236000000,   0.00000,
,,,-00.008232000000,   0.00800,
,,,-00.008228000000,   0.01800,
,,,-00.008224000000,   0.02400,
,,,-00.008220000000,   0.01800,
,,,-00.008216000000,   0.01800,
,,,-00.008212000000,   0.00200,
,,,-00.008208000000,  -0.01800,
,,,-00.008204000000,  -0.02200,
,,,-00.008200000000,  -0.01600,
,,,-00.008196000000,  -0.00400,
,,,-00.008192000000,   0.01000,
,,,-00.008188000000,   0.02400,
,,,-00.008184000000,   0.03400,
,,,-00.008180000000,   0.03600,
,,,-00.008176000000,   0.02000,
,,,-00.008172000000,   0.04000,
,,,-00.008168000000,   0.02600,
,,,-00.008164000000,   0.00000,
,,,-00.008160000000,  -0.05200,
,,,-00.008156000000,  -0.09600,
,,,-00.008152000000,  -0.09200,
,,,-00.008148000000,  -0.06400,
,,,-00.008144000000,  -0.08200,
,,,-00.008140000000,  -0.08000,
,,,-00.008136000000,  -0.06800,
,,,-00.008132000000,  -0.05600,
,,,-00.008128000000,  -0.04200,
,,,-00.008124000000,  -0.03400,
,,,-00.008120000000,  -0.02800,
,,,-00.008116000000,  -0.02000,
,,,-00.008112000000,  -0.01200,
,,,-00.008108000000,  -0.01000,
,,,-00.008104000000,  -0.00400,
,,,-00.008100000000,   0.00000,
,,,-00.008096000000,   0.00400,
,,,-00.008092000000,   0.00800,
,,,-00.008088000000,   0.00600,
,,,-00.008084000000,   0.01200,
,,,-00.008080000000,   0.01200,
,,,-00.008076000000,   0.01400,
,,,-00.008072000000,   0.01000,
,,,-00.008068000000,   0.01600,
,,,-00.008064000000,   0.01600,
,,,-00.008060000000,   0.01800,
,,,-00.008056000000,   0.02400,
,,,-00.008052000000,   0.02000,
,,,-00.008048000000,   0.02200,
,,,-00.008044000000,   0.01600,
,,,-00.008040000000,   0.02200,
,,,-00.008036000000,   0.01800,
,,,-00.008032000000,   0.02000,
,,,-00.008028000000,   0.02400,
,,,-00.008024000000,   0.02200,
,,,-00.008020000000,   0.02400,
,,,-00.008016000000,   0.02400,
,,,-00.008012000000,   0.02200,
,,,-00.008008000000,   0.02000,
,,,-00.008004000000,   0.02000,
,,,-00.008000000000,   0.02600,
,,,-00.007996000000,   0.02200,
,,,-00.007992000000,   0.02000,
,,,-00.007988000000,   0.02600,
,,,-00.007984000000,   0.02200,
,,,-00.007980000000,   0.02400,
,,,-00.007976000000,   0.02800,
,,,-00.007972000000,   0.02600,
,,,-00.007968000000,   0.02200,
,,,-00.007964000000,   0.02600,
,,,-00.007960000000,   0.02400,
,,,-00.007956000000,   0.02200,
,,,-00.007952000000,   0.02400,
,,,-00.007948000000,   0.02800,
,,,-00.007944000000,   0.02000,
,,,-00.007940000000,   0.02200,
,,,-00.007936000000,   0.02200,
,,,-00.007932000000,   0.02600,
,,,-00.007928000000,   0.02400,
,,,-00.007924000000,   0.02200,
,,,-00.007920000000,   0.02600,
,,,-00.007916000000,   0.02200,
,,,-00.007912000000,   0.02400,
,,,-00.007908000000,   0.02000,
,,,-00.007904000000,   0.02400,
,,,-00.007900000000,   0.02800,
,,,-00.007896000000,   0.02400,
,,,-00.007892000000,   0.02200,
,,,-00.007888000000,   0.02400,
,,,-00.007884000000,   0.02600,
,,,-00.007880000000,   0.02200,
,,,-00.007876000000,   0.02600,
,,,-00.007872000000,   0.02400,
,,,-00.007868000000,   0.02400,
,,,-00.007864000000,   0.02000,
,,,-00.007860000000,   0.02600,
,,,-00.007856000000,   0.02600,
,,,-00.007852000000,   0.02800,
,,,-00.007848000000,   0.02400,
,,,-00.007844000000,   0.02200,
,,,-00.007840000000,   0.02200,
,,,-00.007836000000,   0.02200,
,,,-00.007832000000,   0.02400,
,,,-00.007828000000,   0.02400,
,,,-00.007824000000,   0.02400,
,,,-00.007820000000,   0.02400,
,,,-00.007816000000,   0.02000,
,,,-00.007812000000,   0.02400,
,,,-00.007808000000,   0.02400,
,,,-00.007804000000,   0.02400,
,,,-00.007800000000,   0.02400,
,,,-00.007796000000,   0.02400,
,,,-00.007792000000,   0.02400,
,,,-00.007788000000,   0.02600,
,,,-00.007784000000,   0.02000,
,,,-00.007780000000,   0.02000,
,,,-00.007776000000,   0.02400,
,,,-00.007772000000,   0.02200,
,,,-00.007768000000,   0.02200,
,,,-00.007764000000,   0.02400,
,,,-00.007760000000,   0.02600,
,,,-00.007756000000,   0.02600,
,,,-00.007752000000,   0.02000,
,,,-00.007748000000,   0.02400,
,,,-00.007744000000,   0.02200,
,,,-00.007740000000,   0.02600,
,,,-00.007736000000,   0.02200,
,,,-00.007732000000,   0.02400,
,,,-00.007728000000,   0.01800,
,,,-00.007724000000,   0.02400,
,,,-00.007720000000,   0.02200,
,,,-00.007716000000,   0.02000,
,,,-00.007712000000,   0.02400,
,,,-00.007708000000,   0.02000,
,,,-00.007704000000,   0.02400,
,,,-00.007700000000,   0.02200,
,,,-00.007696000000,   0.02200,
,,,-00.007692000000,   0.02200,
,,,-00.007688000000,   0.02600,
,,,-00.007684000000,   0.02400,
,,,-00.007680000000,   0.02400,
,,,-00.007676000000,   0.02000,
,,,-00.007672000000,   0.02200,
,,,-00.007668000000,   0.02400,
,,,-00.007664000000,   0.02400,
,,,-00.007660000000,   0.02200,
,,,-00.007656000000,   0.02400,
,,,-00.007652000000,   0.02400,
,,,-00.007648000000,   0.02000,
,,,-00.007644000000,   0.02400,
,,,-00.007640000000,   0.02400,
,,,-00.007636000000,   0.02200,
,,,-00.007632000000,   0.02400,
,,,-00.007628000000,   0.02200,
,,,-00.007624000000,   0.02400,
,,,-00.007620000000,   0.01800,
,,,-00.007616000000,   0.02200,
,,,-00.007612000000,   0.02600,
,,,-00.007608000000,   0.02400,
,,,-00.007604000000,   0.02200,
,,,-00.007600000000,   0.02400,
,,,-00.007596000000,   0.02400,
,,,-00.007592000000,   0.02000,
,,,-00.007588000000,   0.02200,
,,,-00.007584000000,   0.02200,
,,,-00.007580000000,   0.02200,
,,,-00.007576000000,   0.02000,
,,,-00.007572000000,   0.02000,
,,,-00.007568000000,   0.02200,
,,,-00.007564000000,   0.02400,
,,,-00.007560000000,   0.02000,
,,,-00.007556000000,   0.02400,
,,,-00.007552000000,   0.02000,
,,,-00.007548000000,   0.02000,
,,,-00.007544000000,   0.02200,
,,,-00.007540000000,   0.02200,
,,,-00.007536000000,   0.02200,
,,,-00.007532000000,   0.02200,
,,,-00.007528000000,   0.02400,
,,,-00.007524000000,   0.02400,
,,,-00.007520000000,   0.02200,
,,,-00.007516000000,   0.02000,
,,,-00.007512000000,   0.02000,
,,,-00.007508000000,   0.02200,
,,,-00.007504000000,   0.02000,
,,,-00.007500000000,   0.02000,
,,,-00.007496000000,   0.02200,
,,,-00.007492000000,   0.02000,
,,,-00.007488000000,   0.02200,
,,,-00.007484000000,   0.02200,
,,,-00.007480000000,   0.02200,
,,,-00.007476000000,   0.02200,
,,,-00.007472000000,   0.02200,
,,,-00.007468000000,   0.02400,
,,,-00.007464000000,   0.02200,
,,,-00.007460000000,   0.02000,
,,,-00.007456000000,   0.01800,
,,,-00.007452000000,   0.02200,
,,,-00.007448000000,   0.02000,
,,,-00.007444000000,   0.02000,
,,,-00.007440000000,   0.02400,
,,,-00.007436000000,   0.02200,
,,,-00.007432000000,   0.01800,
,,,-00.007428000000,   0.02000,
,,,-00.007424000000,   0.02400,
,,,-00.007420000000,   0.02200,
,,,-00.007416000000,   0.01600,
,,,-00.007412000000,   0.02600,
,,,-00.007408000000,   0.02400,
,,,-00.007404000000,   0.02200,
,,,-00.007400000000,   0.02200,
,,,-00.007396000000,   0.02000,
,,,-00.007392000000,   0.02000,
,,,-00.007388000000,   0.02000,
,,,-00.007384000000,   0.02200,
,,,-00.007380000000,   0.02000,
,,,-00.007376000000,   0.02000,
,,,-00.007372000000,   0.02000,
,,,-00.007368000000,   0.02400,
,,,-00.007364000000,   0.02400,
,,,-00.007360000000,   0.01800,
,,,-00.007356000000,   0.02400,
,,,-00.007352000000,   0.02200,
,,,-00.007348000000,   0.02000,
,,,-00.007344000000,   0.02000,
,,,-00.007340000000,   0.01800,
,,,-00.007336000000,   0.02400,
,,,-00.007332000000,   0.02400,
,,,-00.007328000000,   0.02400,
,,,-00.007324000000,   0.01800,
,,,-00.007320000000,   0.01800,
,,,-00.007316000000,   0.02400,
,,,-00.007312000000,   0.02200,
,,,-00.007308000000,   0.02200,
,,,-00.007304000000,   0.02000,
,,,-00.007300000000,   0.01800,
,,,-00.007296000000,   0.02200,
,,,-00.007292000000,   0.01400,
,,,-00.007288000000,   0.02200,
,,,-00.007284000000,   0.02400,
,,,-00.007280000000,   0.02000,
,,,-00.007276000000,   0.02200,
,,,-00.007272000000,   0.01600,
,,,-00.007268000000,   0.02000,
,,,-00.007264000000,   0.02200,
,,,-00.007260000000,   0.01800,
,,,-00.007256000000,   0.02000,
,,,-00.007252000000,   0.02200,
,,,-00.007248000000,   0.02000,
,,,-00.007244000000,   0.02200,
,,,-00.007240000000,   0.02200,
,,,-00.007236000000,   0.02200,
,,,-00.007232000000,   0.02000,
,,,-00.007228000000,   0.02000,
,,,-00.007224000000,   0.02200,
,,,-00.007220000000,   0.01800,
,,,-00.007216000000,   0.02000,
,,,-00.007212000000,   0.02200,
,,,-00.007208000000,   0.02000,
,,,-00.007204000000,   0.02200,
,,,-00.007200000000,   0.02000,
,,,-00.007196000000,   0.01800,
,,,-00.007192000000,   0.02000,
,,,-00.007188000000,   0.02000,
,,,-00.007184000000,   0.02200,
,,,-00.007180000000,   0.02000,
,,,-00.007176000000,   0.02200,
,,,-00.007172000000,   0.01800,
,,,-00.007168000000,   0.02000,
,,,-00.007164000000,   0.02200,
,,,-00.007160000000,   0.02200,
,,,-00.007156000000,   0.02000,
,,,-00.007152000000,   0.02000,
,,,-00.007148000000,   0.02200,
,,,-00.007144000000,   0.02200,
,,,-00.007140000000,   0.02000,
,,,-00.007136000000,   0.02000,
,,,-00.007132000000,   0.01800,
,,,-00.007128000000,   0.01800,
,,,-00.007124000000,   0.01800,
,,,-00.007120000000,   0.01800,
,,,-00.007116000000,   0.02200,
,,,-00.007112000000,   0.02400,
,,,-00.007108000000,   0.02000,
,,,-00.007104000000,   0.02200,
,,,-00.007100000000,   0.02200,
,,,-00.007096000000,   0.01800,
,,,-00.007092000000,   0.01800,
,,,-00.007088000000,   0.02200,
,,,-00.007084000000,   0.02000,
,,,-00.007080000000,   0.01800,
,,,-00.007076000000,   0.02400,
,,,-00.007072000000,   0.01600,
,,,-00.007068000000,   0.02400,
,,,-00.007064000000,   0.02200,
,,,-00.007060000000,   0.01800,
,,,-00.007056000000,   0.02200,
,,,-00.007052000000,   0.01600,
,,,-00.007048000000,   0.02400,
,,,-00.007044000000,   0.02000,
,,,-00.007040000000,   0.01800,
,,,-00.007036000000,   0.02000,
,,,-00.007032000000,   0.02000,
,,,-00.007028000000,   0.01800,
,,,-00.007024000000,   0.01800,
,,,-00.007020000000,   0.01800,
,,,-00.007016000000,   0.02000,
,,,-00.007012000000,   0.01800,
,,,-00.007008000000,   0.02200,
,,,-00.007004000000,   0.02000,
,,,-00.007000000000,   0.02000,
,,,-00.006996000000,   0.02400,
,,,-00.006992000000,   0.02000,
,,,-00.006988000000,   0.02000,
,,,-00.006984000000,   0.02400,
,,,-00.006980000000,   0.01600,
,,,-00.006976000000,   0.01800,
,,,-00.006972000000,   0.01800,
,,,-00.006968000000,   0.01800,
,,,-00.006964000000,   0.01800,
,,,-00.006960000000,   0.01800,
,,,-00.006956000000,   0.01800,
,,,-00.006952000000,   0.02000,
,,,-00.006948000000,   0.01800,
,,,-00.006944000000,   0.01800,
,,,-00.006940000000,   0.01800,
,,,-00.006936000000,   0.02000,
,,,-00.006932000000,   0.01800,
,,,-00.006928000000,   0.01800,
,,,-00.006924000000,   0.02400,
,,,-00.006920000000,   0.02000,
,,,-00.006916000000,   0.01800,
,,,-00.006912000000,   0.01800,
,,,-00.006908000000,   0.02400,
,,,-00.006904000000,   0.02000,
,,,-00.006900000000,   0.02200,
,,,-00.006896000000,   0.01800,
,,,-00.006892000000,   0.01800,
,,,-00.006888000000,   0.01800,
,,,-00.006884000000,   0.02000,
,,,-00.006880000000,   0.01800,
,,,-00.006876000000,   0.02000,
,,,-00.006872000000,   0.02000,
,,,-00.006868000000,   0.02200,
,,,-00.006864000000,   0.01800,
,,,-00.006860000000,   0.01600,
,,,-00.006856000000,   0.01800,
,,,-00.006852000000,   0.01800,
,,,-00.006848000000,   0.02200,
,,,-00.006844000000,   0.02000,
,,,-00.006840000000,   0.01800,
,,,-00.006836000000,   0.01800,
,,,-00.006832000000,   0.01800,
,,,-00.006828000000,   0.01800,
,,,-00.006824000000,   0.01600,
,,,-00.006820000000,   0.02000,
,,,-00.006816000000,   0.01800,
,,,-00.006812000000,   0.01800,
,,,-00.006808000000,   0.02000,
,,,-00.006804000000,   0.01800,
,,,-00.006800000000,   0.02000,
,,,-00.006796000000,   0.02200,
,,,-00.006792000000,   0.01800,
,,,-00.006788000000,   0.02000,
,,,-00.006784000000,   0.02200,
,,,-00.006780000000,   0.01800,
,,,-00.006776000000,   0.02000,
,,,-00.006772000000,   0.02000,
,,,-00.006768000000,   0.01800,
,,,-00.006764000000,   0.01400,
,,,-00.006760000000,   0.01800,
,,,-00.006756000000,   0.01400,
,,,-00.006752000000,   0.02000,
,,,-00.006748000000,   0.01800,
,,,-00.006744000000,   0.01800,
,,,-00.006740000000,   0.01000,
,,,-00.006736000000,   0.02000,
,,,-00.006732000000,   0.01600,
,,,-00.006728000000,   0.02000,
,,,-00.006724000000,   0.01800,
,,,-00.006720000000,   0.01600,
,,,-00.006716000000,   0.01600,
,,,-00.006712000000,   0.01600,
,,,-00.006708000000,   0.01600,
,,,-00.006704000000,   0.01600,
,,,-00.006700000000,   0.01800,
,,,-00.006696000000,   0.01800,
,,,-00.006692000000,   0.01600,
,,,-00.006688000000,   0.01800,
,,,-00.006684000000,   0.01800,
,,,-00.006680000000,   0.01800,
,,,-00.006676000000,   0.01800,
,,,-00.006672000000,   0.01600,
,,,-00.006668000000,   0.01600,
,,,-00.006664000000,   0.01600,
,,,-00.006660000000,   0.01400,
,,,-00.006656000000,   0.01800,
,,,-00.006652000000,   0.02000,
,,,-00.006648000000,   0.01400,
,,,-00.006644000000,   0.01800,
,,,-00.006640000000,   0.01800,
,,,-00.006636000000,   0.01800,
,,,-00.006632000000,   0.01600,
,,,-00.006628000000,   0.01800,
,,,-00.006624000000,   0.02000,
,,,-00.006620000000,   0.02000,
,,,-00.006616000000,   0.01400,
,,,-00.006612000000,   0.01800,
,,,-00.006608000000,   0.02000,
,,,-00.006604000000,   0.01800,
,,,-00.006600000000,   0.02000,
,,,-00.006596000000,   0.02000,
,,,-00.006592000000,   0.02000,
,,,-00.006588000000,   0.01800,
,,,-00.006584000000,   0.01800,
,,,-00.006580000000,   0.02000,
,,,-00.006576000000,   0.01800,
,,,-00.006572000000,   0.01800,
,,,-00.006568000000,   0.01600,
,,,-00.006564000000,   0.01800,
,,,-00.006560000000,   0.02000,
,,,-00.006556000000,   0.01800,
,,,-00.006552000000,   0.01800,
,,,-00.006548000000,   0.01800,
